…
```r
naniar::miss_var_summary(surgery) # NAs are represented by missing values.
```

```
## # A tibble: 25 × 3
##    variable          n_miss pct_miss
##    <chr>              <int>    <dbl>
##  1 bmi                 3290 10.3    
##  2 race                 480  1.50   
##  3 asa_status             8  0.0250 
##  4 gender                 3  0.00937
##  5 age                    2  0.00625
##  6 ahrq_ccs               0  0      
##  7 baseline_cancer        0  0      
##  8 baseline_cvd           0  0      
##  9 baseline_dementia      0  0      
## 10 baseline_diabetes      0  0      
## # … with 15 more rows
```
…
9. (4 points) When is the best month to have surgery? Make a chart that shows the 30-day mortality and complications for the patients by month. `mort30` is the variable that shows whether or not a patient survived 30 days post-operation. *December is the best month to have surgery*


```r
surgery2<- surgery %>%
  mutate(mort_new = ifelse(mort30 =="Yes", 1, 0))%>%
  count(month, mort_new)
surgery2
```

```
## # A tibble: 24 × 3
##    month mort_new     n
##    <chr>    <dbl> <int>
##  1 Apr          0  2686
##  2 Apr          1    12
##  3 Aug          0  3168
##  4 Aug          1     9
##  5 Dec          0  1835
##  6 Dec          1     4
##  7 Feb          0  2489
##  8 Feb          1    17
##  9 Jan          0  2651
## 10 Jan          1    19
## # … with 14 more rows
```
…
