…
**5. Make any necessary replacements in the data such that all NA's appear as "NA".**   

```r
amniota_tidy <- amniota %>% 
  na_if("-999")
```

**6. Use the package `naniar` to produce a summary, including percentages, of missing data in each column for the `amniota` data.**  

```r
miss_var_summary(amniota_tidy)
```

```
## # A tibble: 36 × 3
##    variable                       n_miss pct_miss
##    <chr>                           <int>    <dbl>
##  1 subspecies                      21322    100  
##  2 female_body_mass_at_maturity_g  21318    100. 
##  3 female_svl_at_maturity_cm       21120     99.1
##  4 fledging_mass_g                 21111     99.0
##  5 male_svl_cm                     21040     98.7
##  6 no_sex_maturity_d               20860     97.8
##  7 egg_width_mm                    20727     97.2
##  8 egg_length_mm                   20702     97.1
##  9 weaning_weight_g                20258     95.0
## 10 female_svl_cm                   20242     94.9
## # … with 26 more rows
```

**7. Use the package `naniar` to produce a summary, including percentages, of missing data in each column for the `amphibio` data.**

```r
miss_var_summary(amphibio)
```

```
## # A tibble: 38 × 3
##    variable n_miss pct_miss
##    <chr>     <int>    <dbl>
##  1 Fruits     6774    100. 
##  2 Flowers    6772     99.9
##  3 Seeds      6772     99.9
##  4 Leaves     6752     99.6
##  5 Dry_cold   6735     99.4
##  6 Vert       6657     98.2
##  7 OBS        6651     98.2
##  8 Wet_cold   6625     97.8
##  9 Crepu      6608     97.5
## 10 Dry_warm   6572     97.0
## # … with 28 more rows
```

**8. For the `amniota` data, calculate the number of NAs in the `egg_mass_g` column sorted by taxonomic class; i.e. how many NA's are present in the `egg_mass_g` column in birds, mammals, and reptiles? Does this results make sense biologically? How do these results affect your interpretation of NA's?**  


```r
amniota_tidy %>% 
  count(egg_mass_g, class, sort = TRUE)
```

```
## # A tibble: 1,613 × 3
##    egg_mass_g class        n
##         <dbl> <chr>    <int>
##  1      NA    Reptilia  6040
##  2      NA    Mammalia  4953
##  3      NA    Aves      4914
##  4       8    Aves        33
##  5       1.42 Aves        24
##  6       1.4  Aves        23
##  7      21    Aves        22
##  8       7.4  Aves        21
##  9       1.33 Aves        20
## 10       1.9  Aves        20
## # … with 1,603 more rows
```
…
